{
  "items": [
    {
      "external_urls": {
        "spotify": "https://open.spotify.com/artist/3YQKmKGau1PzlVlkL1iodx"
      },
      "followers": {
        "href": null,
        "total": 16354139
      },
      "genres": [
        "modern rock",
        "rock"
      ],
      "href": "https://api.spotify.com/v1/artists/3YQKmKGau1PzlVlkL1iodx",
      "id": "3YQKmKGau1PzlVlkL1iodx",
      "images": [
        {
          "height": 640,
          "url": "https://i.scdn.co/image/19e8f3bc875b7a4b9cf0041a5ee696c4be5478aa",
          "width": 640
        },
        {
          "height": 320,
          "url": "https://i.scdn.co/image/99fb27e4f2caad57e4bf5ee55676c3e352fee3c8",
          "width": 320
        },
        {
          "height": 160,
          "url": "https://i.scdn.co/image/f6a0cfdea725ca2a58de787ca5f1b82d0c516be3",
          "width": 160
        }
      ],
      "name": "Twenty One Pilots",
      "popularity": 87,
      "type": "artist",
      "uri": "spotify:artist:3YQKmKGau1PzlVlkL1iodx"
    },
    {
      "external_urls": {
        "spotify": "https://open.spotify.com/artist/6dgwEwnK0YtDfS9XhRwBTG"
      },
      "followers": {
        "href": null,
        "total": 421751
      },
      "genres": [
        "alternative dance",
        "alternative rock",
        "chamber pop",
        "dance-punk",
        "garage rock",
        "indie pop",
        "indie rock",
        "indietronica",
        "la indie",
        "modern rock",
        "new rave",
        "rock",
        "shimmer pop"
      ],
      "href": "https://api.spotify.com/v1/artists/6dgwEwnK0YtDfS9XhRwBTG",
      "id": "6dgwEwnK0YtDfS9XhRwBTG",
      "images": [
        {
          "height": 640,
          "url": "https://i.scdn.co/image/cdc9cf0b72e6bdc2a35eb1137781c975fdacbd8c",
          "width": 640
        },
        {
          "height": 320,
          "url": "https://i.scdn.co/image/afbb15d37b2e867e37759c65f1d81feaae2eb586",
          "width": 320
        },
        {
          "height": 160,
          "url": "https://i.scdn.co/image/2f3a6ae703896aa1218ba03a97c99e5e9d4737b7",
          "width": 160
        }
      ],
      "name": "Broken Bells",
      "popularity": 64,
      "type": "artist",
      "uri": "spotify:artist:6dgwEwnK0YtDfS9XhRwBTG"
    },
    {
      "external_urls": {
        "spotify": "https://open.spotify.com/artist/3XHO7cRUPCLOr6jwp8vsx5"
      },
      "followers": {
        "href": null,
        "total": 2471801
      },
      "genres": [
        "indie rock",
        "modern rock"
      ],
      "href": "https://api.spotify.com/v1/artists/3XHO7cRUPCLOr6jwp8vsx5",
      "id": "3XHO7cRUPCLOr6jwp8vsx5",
      "images": [
        {
          "height": 640,
          "url": "https://i.scdn.co/image/7ac54cbec2f1b3f5f1b7f6fc23acb9d00c70fb51",
          "width": 640
        },
        {
          "height": 320,
          "url": "https://i.scdn.co/image/592ac1bc107c62fbdd9e1e91e891577672fa6bb3",
          "width": 320
        },
        {
          "height": 160,
          "url": "https://i.scdn.co/image/94874205e99b9e27b316ea8c559679b740bdb038",
          "width": 160
        }
      ],
      "name": "alt-J",
      "popularity": 76,
      "type": "artist",
      "uri": "spotify:artist:3XHO7cRUPCLOr6jwp8vsx5"
    },
    {
      "external_urls": {
        "spotify": "https://open.spotify.com/artist/7Ln80lUS6He07XvHI8qqHH"
      },
      "followers": {
        "href": null,
        "total": 9006234
      },
      "genres": [
        "garage rock",
        "modern rock",
        "permanent wave",
        "rock",
        "sheffield indie"
      ],
      "href": "https://api.spotify.com/v1/artists/7Ln80lUS6He07XvHI8qqHH",
      "id": "7Ln80lUS6He07XvHI8qqHH",
      "images": [
        {
          "height": 640,
          "url": "https://i.scdn.co/image/ed0552e9746ed2bbf04ae4bcb5525700ca31522d",
          "width": 640
        },
        {
          "height": 320,
          "url": "https://i.scdn.co/image/b435e99aa7f1e27db56b6a4dc9df85e5636b22d6",
          "width": 320
        },
        {
          "height": 160,
          "url": "https://i.scdn.co/image/73c4e49abed008fe0c5e4f1437b8b486c7670ecd",
          "width": 160
        }
      ],
      "name": "Arctic Monkeys",
      "popularity": 85,
      "type": "artist",
      "uri": "spotify:artist:7Ln80lUS6He07XvHI8qqHH"
    },
    {
      "external_urls": {
        "spotify": "https://open.spotify.com/artist/5INjqkS1o8h1imAzPqGZBb"
      },
      "followers": {
        "href": null,
        "total": 3409037
      },
      "genres": [
        "australian psych",
        "neo-psychedelic"
      ],
      "href": "https://api.spotify.com/v1/artists/5INjqkS1o8h1imAzPqGZBb",
      "id": "5INjqkS1o8h1imAzPqGZBb",
      "images": [
        {
          "height": 640,
          "url": "https://i.scdn.co/image/a7cb9fc6df8b68fdb071156add87284c3c941a04",
          "width": 640
        },
        {
          "height": 320,
          "url": "https://i.scdn.co/image/135442e5a19db953eb2f48ff39ff8c4c985dc7e1",
          "width": 320
        },
        {
          "height": 160,
          "url": "https://i.scdn.co/image/edc87a3af030da0e1d671d20d734528c8d4e880e",
          "width": 160
        }
      ],
      "name": "Tame Impala",
      "popularity": 88,
      "type": "artist",
      "uri": "spotify:artist:5INjqkS1o8h1imAzPqGZBb"
    },
    {
      "external_urls": {
        "spotify": "https://open.spotify.com/artist/3CjlHNtplJyTf9npxaPl5w"
      },
      "followers": {
        "href": null,
        "total": 1101917
      },
      "genres": [
        "electropop",
        "indie pop",
        "indie poptimism",
        "indietronica",
        "metropopolis",
        "neo-synthpop",
        "shimmer pop"
      ],
      "href": "https://api.spotify.com/v1/artists/3CjlHNtplJyTf9npxaPl5w",
      "id": "3CjlHNtplJyTf9npxaPl5w",
      "images": [
        {
          "height": 640,
          "url": "https://i.scdn.co/image/e6c530da12f920f3b8d2d57be7782f9d49af16c3",
          "width": 640
        },
        {
          "height": 320,
          "url": "https://i.scdn.co/image/64a6c54b7bea1c2c314da545c3f5048d28f48c3b",
          "width": 320
        },
        {
          "height": 160,
          "url": "https://i.scdn.co/image/a5b058c5287ade15994f668a46f5d7f782dae97e",
          "width": 160
        }
      ],
      "name": "CHVRCHES",
      "popularity": 75,
      "type": "artist",
      "uri": "spotify:artist:3CjlHNtplJyTf9npxaPl5w"
    },
    {
      "external_urls": {
        "spotify": "https://open.spotify.com/artist/4yvcSjfu4PC0CYQyLy4wSq"
      },
      "followers": {
        "href": null,
        "total": 1071215
      },
      "genres": [
        "gauze pop",
        "indie pop",
        "modern rock",
        "shiver pop"
      ],
      "href": "https://api.spotify.com/v1/artists/4yvcSjfu4PC0CYQyLy4wSq",
      "id": "4yvcSjfu4PC0CYQyLy4wSq",
      "images": [
        {
          "height": 640,
          "url": "https://i.scdn.co/image/f282504561b0c2b2ec74925793bbf132982e9098",
          "width": 640
        },
        {
          "height": 320,
          "url": "https://i.scdn.co/image/43889206b3aab1e168d664ff9a2a30c5d4e50055",
          "width": 320
        },
        {
          "height": 160,
          "url": "https://i.scdn.co/image/ebfc603dcc3c1efc110fc0563aa31121a2033804",
          "width": 160
        }
      ],
      "name": "Glass Animals",
      "popularity": 75,
      "type": "artist",
      "uri": "spotify:artist:4yvcSjfu4PC0CYQyLy4wSq"
    },
    {
      "external_urls": {
        "spotify": "https://open.spotify.com/artist/4kI8Ie27vjvonwaB2ePh8T"
      },
      "followers": {
        "href": null,
        "total": 1056802
      },
      "genres": [
        "indie pop",
        "indie rock",
        "indietronica",
        "modern rock",
        "rock"
      ],
      "href": "https://api.spotify.com/v1/artists/4kI8Ie27vjvonwaB2ePh8T",
      "id": "4kI8Ie27vjvonwaB2ePh8T",
      "images": [
        {
          "height": 640,
          "url": "https://i.scdn.co/image/53cfabafc2e9d15590719cf987ac0801d8ec75b3",
          "width": 640
        },
        {
          "height": 320,
          "url": "https://i.scdn.co/image/54ce1da438cce7b39f709b010e033d8acd806158",
          "width": 320
        },
        {
          "height": 160,
          "url": "https://i.scdn.co/image/e5bdedb572ab42ada8621355a71f9bb730f8e3b6",
          "width": 160
        }
      ],
      "name": "Portugal. The Man",
      "popularity": 74,
      "type": "artist",
      "uri": "spotify:artist:4kI8Ie27vjvonwaB2ePh8T"
    },
    {
      "external_urls": {
        "spotify": "https://open.spotify.com/artist/2snm3HmsnDUDxbIChdl2Oj"
      },
      "followers": {
        "href": null,
        "total": 47689
      },
      "genres": [
        "hollywood",
        "movie tunes"
      ],
      "href": "https://api.spotify.com/v1/artists/2snm3HmsnDUDxbIChdl2Oj",
      "id": "2snm3HmsnDUDxbIChdl2Oj",
      "images": [
        {
          "height": 640,
          "url": "https://i.scdn.co/image/0a31455f3c881140c22c5aa4e1979b510a84aeeb",
          "width": 640
        },
        {
          "height": 320,
          "url": "https://i.scdn.co/image/6d96e5fd4936b75ed02f5695d03d0dfd0ed7a264",
          "width": 320
        },
        {
          "height": 160,
          "url": "https://i.scdn.co/image/3a5307e7090600dac3c6e858b045302acf1c58e3",
          "width": 160
        }
      ],
      "name": "Justin Hurwitz",
      "popularity": 66,
      "type": "artist",
      "uri": "spotify:artist:2snm3HmsnDUDxbIChdl2Oj"
    },
    {
      "external_urls": {
        "spotify": "https://open.spotify.com/artist/6Kok7CY4F15SfSRwGVFLqN"
      },
      "followers": {
        "href": null,
        "total": 2319
      },
      "genres": [
        "cleveland indie"
      ],
      "href": "https://api.spotify.com/v1/artists/6Kok7CY4F15SfSRwGVFLqN",
      "id": "6Kok7CY4F15SfSRwGVFLqN",
      "images": [
        {
          "height": 563,
          "url": "https://i.scdn.co/image/2a9d251117689bfa895a851eec7b40eb0e94cde7",
          "width": 1000
        },
        {
          "height": 360,
          "url": "https://i.scdn.co/image/1691701f1b150ceed5a512f821f378e88566bb67",
          "width": 640
        },
        {
          "height": 113,
          "url": "https://i.scdn.co/image/f24f646fa3b56f09aeed9adc213730c1fc4fdf70",
          "width": 200
        },
        {
          "height": 36,
          "url": "https://i.scdn.co/image/5641a790b4ac10598832d20a5b38376141b95f2f",
          "width": 64
        }
      ],
      "name": "The Modern Electric",
      "popularity": 24,
      "type": "artist",
      "uri": "spotify:artist:6Kok7CY4F15SfSRwGVFLqN"
    }
  ],
  "total": 50,
  "limit": 10,
  "offset": 5,
  "href": "https://api.spotify.com/v1/me/top/artists?limit=10&offset=5",
  "previous": null,
  "next": "https://api.spotify.com/v1/me/top/artists?limit=10&offset=15"
}